[gd_scene load_steps=5 format=2]

[ext_resource path="res://plugins/minigames/bowling/ball.gd" type="Script" id=1]
[ext_resource path="res://plugins/minigames/bowling/ball.glb" type="PackedScene" id=2]

[sub_resource type="SphereShape" id=2]
radius = 0.25

[sub_resource type="Animation" id=3]
resource_name = "rotate"
length = 0.5
loop = true
tracks/0/type = "value"
tracks/0/path = NodePath("ball:rotation_degrees")
tracks/0/interp = 1
tracks/0/loop_wrap = true
tracks/0/imported = false
tracks/0/enabled = true
tracks/0/keys = {
"times": PoolRealArray( 0, 0.5 ),
"transitions": PoolRealArray( 1, 1 ),
"update": 0,
"values": [ Vector3( 0, 0, 0 ), Vector3( -360, 0, 0 ) ]
}

[node name="Area" type="KinematicBody"]
collision_layer = 4
collision_mask = 2
script = ExtResource( 1 )

[node name="ball" parent="." instance=ExtResource( 2 )]
transform = Transform( 0.05, 0, 0, 0, 0.0456626, 0.0203699, 0, -0.0203699, 0.0456626, 0, 0, 0 )

[node name="CollisionShape" type="CollisionShape" parent="."]
shape = SubResource( 2 )

[node name="AnimationPlayer" type="AnimationPlayer" parent="."]
autoplay = "rotate"
anims/rotate = SubResource( 3 )
