[gd_scene load_steps=9 format=2]

[ext_resource path="res://assets/textures/crate0/crate0_diffuse.png" type="Texture" id=1]
[ext_resource path="res://plugins/minigames/bowling/box.gd" type="Script" id=2]
[ext_resource path="res://assets/textures/crate0/crate0_normal.png" type="Texture" id=3]
[ext_resource path="res://assets/textures/hit_indicator.png" type="Texture" id=4]

[sub_resource type="CubeMesh" id=1]
size = Vector3( 0.5, 0.5, 0.5 )

[sub_resource type="SpatialMaterial" id=2]
resource_local_to_scene = true
flags_transparent = true
params_diffuse_mode = 4
params_specular_mode = 4
params_depth_draw_mode = 1
albedo_texture = ExtResource( 1 )
normal_enabled = true
normal_scale = 1.0
normal_texture = ExtResource( 3 )
uv1_scale = Vector3( 3, 2, 1 )

[sub_resource type="BoxShape" id=3]
extents = Vector3( 0.25, 0.25, 0.25 )

[sub_resource type="Animation" id=4]
resource_name = "destroy"
length = 0.2
tracks/0/type = "value"
tracks/0/path = NodePath("MeshInstance:material/0:albedo_color")
tracks/0/interp = 1
tracks/0/loop_wrap = true
tracks/0/imported = false
tracks/0/enabled = true
tracks/0/keys = {
"times": PoolRealArray( 0, 0.2 ),
"transitions": PoolRealArray( 1, 1 ),
"update": 0,
"values": [ Color( 1, 1, 1, 1 ), Color( 1, 0, 0, 0 ) ]
}

[node name="StaticBody" type="KinematicBody" groups=[
"box",
]]
collision_mask = 7
script = ExtResource( 2 )

[node name="MeshInstance" type="MeshInstance" parent="."]
mesh = SubResource( 1 )
material/0 = SubResource( 2 )

[node name="CollisionShape" type="CollisionShape" parent="."]
shape = SubResource( 3 )

[node name="Sprite3D" type="Sprite3D" parent="."]
modulate = Color( 1, 1, 1, 0 )
pixel_size = 0.003
axis = 1
texture = ExtResource( 4 )

[node name="AnimationPlayer" type="AnimationPlayer" parent="."]
anims/destroy = SubResource( 4 )
[connection signal="animation_finished" from="AnimationPlayer" to="." method="_on_AnimationPlayer_animation_finished"]
