[gd_scene load_steps=6 format=2]

[ext_resource path="res://scenes/board_logic/controller/itemselection.gd" type="Script" id=1]
[ext_resource path="res://assets/shaders/outline.shader" type="Shader" id=2]

[sub_resource type="ShaderMaterial" id=1]
shader = ExtResource( 2 )
shader_param/width = 5.0
shader_param/outline_color = Color( 1, 1, 1, 1 )
shader_param/enable_shader = false

[sub_resource type="ShaderMaterial" id=2]
shader = ExtResource( 2 )
shader_param/width = 5.0
shader_param/outline_color = Color( 1, 1, 1, 1 )
shader_param/enable_shader = false

[sub_resource type="ShaderMaterial" id=3]
shader = ExtResource( 2 )
shader_param/width = 5.0
shader_param/outline_color = Color( 1, 1, 1, 1 )
shader_param/enable_shader = false

[node name="ItemSelection" type="Control"]
visible = false
anchor_right = 1.0
anchor_bottom = 1.0
script = ExtResource( 1 )

[node name="Item1" type="TextureButton" parent="."]
material = SubResource( 1 )
anchor_left = 0.5
anchor_top = 0.5
anchor_right = 0.5
anchor_bottom = 0.5
margin_left = -264.0
margin_top = -64.0
margin_right = -136.0
margin_bottom = 64.0
expand = true
stretch_mode = 5

[node name="Item2" type="TextureButton" parent="."]
material = SubResource( 2 )
anchor_left = 0.5
anchor_top = 0.5
anchor_right = 0.5
anchor_bottom = 0.5
margin_left = -64.0
margin_top = -64.0
margin_right = 64.0
margin_bottom = 64.0
expand = true
stretch_mode = 5

[node name="Item3" type="TextureButton" parent="."]
material = SubResource( 3 )
anchor_left = 0.5
anchor_top = 0.5
anchor_right = 0.5
anchor_bottom = 0.5
margin_left = 136.0
margin_top = -64.0
margin_right = 264.0
margin_bottom = 64.0
expand = true
stretch_mode = 4
