[gd_scene load_steps=6 format=2]

[ext_resource path="res://plugins/minigames/kernel_compiling/battery/tex_empty.png" type="Texture" id=1]
[ext_resource path="res://plugins/minigames/kernel_compiling/battery/tex_full.png" type="Texture" id=2]




[sub_resource type="ArrayMesh" id=5]

blend_shape_mode = 1
custom_aabb = AABB( 0, 0, 0, 0, 0, 0 )
surfaces/0 = {
"aabb": AABB( -1, -1, -0.989924, 2, 3.97662, 2 ),
"array_data": PoolByteArray( 0, 0, 0, 65, 235, 187, 0, 60, 0, 87, 164, 0, 129, 0, 0, 127, 87, 54, 4, 54, 62, 50, 0, 188, 196, 187, 0, 60, 18, 169, 166, 0, 132, 0, 232, 127, 196, 53, 0, 60, 0, 0, 0, 188, 235, 187, 0, 60, 0, 169, 164, 0, 129, 0, 0, 127, 79, 54, 0, 60, 62, 50, 0, 65, 196, 187, 0, 60, 18, 87, 166, 0, 132, 0, 232, 127, 204, 53, 4, 54, 31, 54, 0, 188, 79, 187, 0, 60, 35, 169, 171, 0, 139, 0, 208, 127, 64, 53, 0, 60, 31, 54, 0, 65, 79, 187, 0, 60, 35, 87, 171, 0, 139, 0, 208, 127, 72, 53, 4, 54, 113, 56, 0, 188, 146, 186, 0, 60, 51, 169, 180, 0, 151, 0, 186, 127, 201, 52, 0, 60, 113, 56, 0, 65, 146, 186, 0, 60, 51, 87, 180, 0, 151, 0, 186, 127, 209, 52, 4, 54, 168, 57, 0, 188, 147, 185, 0, 60, 65, 169, 191, 0, 163, 250, 171, 127, 100, 52, 0, 60, 168, 57, 0, 65, 147, 185, 0, 60, 65, 87, 191, 0, 171, 250, 163, 127, 108, 52, 4, 54, 166, 58, 0, 188, 93, 184, 0, 60, 76, 169, 205, 0, 186, 0, 151, 127, 0, 52, 0, 60, 168, 57, 0, 188, 147, 185, 0, 60, 65, 169, 191, 0, 171, 6, 163, 127, 100, 52, 0, 60, 166, 58, 0, 65, 93, 184, 0, 60, 76, 87, 205, 0, 186, 0, 151, 127, 7, 52, 4, 54, 100, 59, 0, 188, 246, 181, 0, 60, 85, 169, 221, 0, 208, 0, 139, 127, 18, 51, 0, 60, 100, 59, 0, 65, 246, 181, 0, 60, 85, 87, 221, 0, 208, 0, 139, 127, 34, 51, 4, 54, 216, 59, 0, 188, 235, 177, 0, 60, 90, 169, 238, 0, 232, 0, 132, 127, 11, 50, 0, 60, 216, 59, 0, 65, 235, 177, 0, 60, 90, 87, 238, 0, 232, 0, 132, 127, 27, 50, 4, 54, 0, 60, 0, 188, 40, 33, 0, 60, 92, 169, 0, 0, 0, 0, 129, 127, 243, 48, 0, 60, 0, 60, 0, 65, 40, 33, 0, 60, 92, 87, 0, 0, 0, 0, 129, 127, 3, 49, 4, 54, 216, 59, 0, 188, 144, 50, 0, 60, 90, 169, 18, 0, 24, 0, 132, 127, 172, 47, 0, 60, 216, 59, 0, 65, 144, 50, 0, 60, 90, 87, 18, 0, 24, 0, 132, 127, 204, 47, 4, 54, 100, 59, 0, 188, 72, 54, 0, 60, 85, 169, 35, 0, 48, 0, 139, 127, 124, 45, 0, 60, 100, 59, 0, 65, 72, 54, 0, 60, 85, 87, 35, 0, 48, 0, 139, 127, 156, 45, 4, 54, 166, 58, 0, 188, 134, 56, 0, 60, 76, 169, 51, 0, 70, 0, 151, 127, 219, 42, 0, 60, 166, 58, 0, 65, 134, 56, 0, 60, 76, 87, 51, 0, 70, 0, 151, 127, 27, 43, 4, 54, 168, 57, 0, 188, 188, 57, 0, 60, 65, 169, 65, 0, 89, 0, 167, 127, 77, 38, 0, 60, 168, 57, 0, 65, 188, 57, 0, 60, 65, 87, 65, 0, 89, 0, 167, 127, 205, 38, 4, 54, 113, 56, 0, 188, 187, 58, 0, 60, 51, 169, 76, 0, 102, 250, 181, 127, 0, 0, 0, 60, 113, 56, 0, 65, 187, 58, 0, 60, 51, 87, 76, 0, 148, 6, 65, 129, 54, 58, 4, 54, 31, 54, 0, 188, 120, 59, 0, 60, 35, 169, 85, 0, 139, 0, 48, 129, 109, 58, 0, 60, 113, 56, 0, 188, 187, 58, 0, 60, 51, 169, 76, 0, 148, 250, 65, 129, 50, 58, 0, 60, 31, 54, 0, 65, 120, 59, 0, 60, 35, 87, 85, 0, 139, 0, 48, 129, 113, 58, 4, 54, 62, 50, 0, 188, 237, 59, 0, 60, 18, 169, 90, 0, 132, 0, 24, 129, 175, 58, 0, 60, 62, 50, 0, 65, 237, 59, 0, 60, 18, 87, 90, 0, 132, 0, 24, 129, 179, 58, 4, 54, 0, 0, 0, 188, 10, 60, 0, 60, 0, 169, 92, 0, 129, 0, 0, 129, 245, 58, 0, 60, 0, 0, 0, 65, 10, 60, 0, 60, 0, 87, 92, 0, 129, 0, 0, 129, 249, 58, 4, 54, 62, 178, 0, 188, 237, 59, 0, 60, 238, 169, 90, 0, 132, 0, 232, 129, 60, 59, 0, 60, 62, 178, 0, 65, 237, 59, 0, 60, 238, 87, 90, 0, 132, 0, 232, 129, 64, 59, 4, 54, 31, 182, 0, 188, 120, 59, 0, 60, 221, 169, 85, 0, 139, 0, 208, 129, 130, 59, 0, 60, 31, 182, 0, 65, 120, 59, 0, 60, 221, 87, 85, 0, 139, 0, 208, 129, 134, 59, 4, 54, 113, 184, 0, 188, 187, 58, 0, 60, 205, 169, 76, 0, 148, 6, 191, 129, 196, 59, 0, 60, 113, 184, 0, 65, 187, 58, 0, 60, 205, 87, 76, 0, 154, 6, 181, 129, 200, 59, 4, 54, 168, 185, 0, 188, 188, 57, 0, 60, 191, 169, 65, 0, 163, 6, 171, 129, 0, 60, 0, 60, 113, 184, 0, 188, 187, 58, 0, 60, 205, 169, 76, 0, 154, 250, 181, 129, 196, 59, 0, 60, 168, 185, 0, 65, 188, 57, 0, 60, 191, 87, 65, 0, 85, 250, 93, 127, 54, 58, 4, 54, 166, 186, 0, 188, 134, 56, 0, 60, 180, 169, 51, 0, 70, 0, 105, 127, 247, 57, 0, 60, 168, 185, 0, 188, 188, 57, 0, 60, 191, 169, 65, 0, 85, 6, 93, 127, 50, 58, 0, 60, 166, 186, 0, 65, 134, 56, 0, 60, 180, 87, 51, 0, 70, 0, 105, 127, 251, 57, 4, 54, 100, 187, 0, 188, 72, 54, 0, 60, 171, 169, 35, 0, 48, 0, 117, 127, 181, 57, 0, 60, 100, 187, 0, 65, 72, 54, 0, 60, 171, 87, 35, 0, 48, 0, 117, 127, 185, 57, 4, 54, 216, 187, 0, 188, 144, 50, 0, 60, 166, 169, 18, 0, 24, 0, 124, 127, 111, 57, 0, 60, 216, 187, 0, 65, 144, 50, 0, 60, 166, 87, 18, 0, 24, 0, 124, 127, 115, 57, 4, 54, 0, 188, 0, 188, 40, 33, 0, 60, 164, 169, 0, 0, 0, 0, 127, 127, 39, 57, 0, 60, 0, 188, 0, 65, 40, 33, 0, 60, 164, 87, 0, 0, 0, 0, 127, 127, 43, 57, 4, 54, 216, 187, 0, 188, 235, 177, 0, 60, 166, 169, 238, 0, 232, 0, 124, 127, 226, 56, 0, 60, 216, 187, 0, 65, 235, 177, 0, 60, 166, 87, 238, 0, 232, 0, 124, 127, 230, 56, 4, 54, 100, 187, 0, 188, 246, 181, 0, 60, 171, 169, 221, 0, 208, 0, 117, 127, 160, 56, 0, 60, 100, 187, 0, 65, 246, 181, 0, 60, 171, 87, 221, 0, 208, 0, 117, 127, 164, 56, 4, 54, 166, 186, 0, 188, 93, 184, 0, 60, 180, 169, 205, 0, 191, 250, 108, 127, 100, 56, 0, 60, 166, 186, 0, 65, 93, 184, 0, 60, 180, 87, 205, 0, 181, 250, 102, 127, 104, 56, 4, 54, 168, 185, 0, 188, 147, 185, 0, 60, 191, 169, 191, 0, 167, 0, 89, 127, 50, 56, 0, 60, 166, 186, 0, 188, 93, 184, 0, 60, 180, 169, 205, 0, 181, 6, 102, 127, 100, 56, 0, 60, 168, 185, 0, 65, 147, 185, 0, 60, 191, 87, 191, 0, 167, 0, 89, 127, 54, 56, 4, 54, 113, 184, 0, 188, 146, 186, 0, 60, 205, 169, 180, 0, 151, 0, 70, 127, 238, 55, 0, 60, 113, 184, 0, 65, 146, 186, 0, 60, 205, 87, 180, 0, 151, 0, 70, 127, 246, 55, 4, 54, 31, 182, 0, 188, 79, 187, 0, 60, 221, 169, 171, 0, 139, 0, 48, 127, 106, 55, 0, 60, 168, 57, 0, 65, 147, 185, 0, 60, 65, 87, 191, 0, 105, 225, 63, 127, 228, 56, 115, 38, 67, 55, 0, 65, 218, 180, 0, 60, 72, 92, 208, 0, 99, 213, 65, 127, 184, 56, 209, 46, 166, 58, 0, 65, 93, 184, 0, 60, 76, 87, 205, 0, 96, 212, 69, 127, 30, 57, 177, 41, 31, 182, 0, 65, 79, 187, 0, 60, 221, 87, 171, 0, 139, 0, 48, 127, 114, 55, 4, 54, 62, 178, 0, 188, 196, 187, 0, 60, 238, 169, 166, 0, 132, 0, 24, 127, 222, 54, 0, 60, 62, 178, 0, 65, 196, 187, 0, 60, 238, 87, 166, 0, 132, 0, 24, 127, 230, 54, 4, 54, 216, 59, 0, 188, 235, 177, 0, 60, 90, 169, 238, 0, 6, 238, 125, 127, 1, 48, 176, 53, 62, 50, 0, 188, 237, 59, 0, 60, 18, 169, 90, 0, 222, 84, 88, 127, 140, 53, 126, 51, 216, 187, 0, 188, 144, 50, 0, 60, 166, 169, 18, 0, 6, 18, 125, 127, 78, 51, 34, 31, 113, 56, 0, 65, 187, 58, 0, 60, 51, 87, 76, 0, 111, 196, 250, 127, 79, 57, 178, 52, 176, 50, 0, 65, 9, 56, 0, 60, 33, 92, 80, 0, 118, 211, 3, 127, 184, 56, 24, 52, 31, 54, 0, 65, 120, 59, 0, 60, 35, 87, 85, 0, 118, 210, 255, 127, 30, 57, 22, 53, 100, 187, 0, 65, 72, 54, 0, 60, 171, 87, 35, 0, 89, 60, 66, 127, 89, 54, 178, 52, 72, 184, 0, 65, 209, 46, 0, 60, 171, 92, 16, 0, 88, 71, 56, 127, 39, 55, 66, 51, 216, 187, 0, 65, 144, 50, 0, 60, 166, 87, 18, 0, 83, 74, 60, 127, 12, 54, 60, 52, 0, 0, 0, 65, 235, 187, 0, 60, 0, 87, 164, 0, 124, 18, 17, 127, 175, 55, 26, 34, 209, 46, 0, 65, 72, 184, 0, 60, 16, 92, 171, 0, 122, 6, 31, 127, 43, 56, 114, 45, 62, 50, 0, 65, 196, 187, 0, 60, 18, 87, 166, 0, 123, 6, 30, 127, 27, 56, 71, 29, 62, 178, 0, 65, 196, 187, 0, 60, 238, 87, 166, 0, 123, 31, 5, 127, 47, 55, 115, 38, 0, 0, 0, 65, 94, 184, 0, 60, 0, 92, 170, 0, 124, 18, 19, 127, 6, 56, 174, 45, 216, 59, 0, 65, 144, 50, 0, 60, 90, 87, 18, 0, 79, 165, 38, 127, 157, 57, 62, 49, 9, 56, 0, 65, 176, 50, 0, 60, 80, 92, 33, 0, 90, 170, 22, 127, 254, 56, 26, 50, 100, 59, 0, 65, 72, 54, 0, 60, 85, 87, 35, 0, 85, 165, 19, 127, 157, 57, 90, 50, 31, 182, 0, 65, 120, 59, 0, 60, 221, 87, 85, 0, 119, 6, 42, 127, 27, 56, 183, 53, 218, 180, 0, 65, 67, 55, 0, 60, 208, 92, 72, 0, 114, 19, 51, 127, 6, 56, 97, 52, 113, 184, 0, 65, 187, 58, 0, 60, 205, 87, 76, 0, 113, 19, 53, 127, 175, 55, 156, 53, 166, 186, 0, 65, 93, 184, 0, 60, 180, 87, 205, 0, 95, 83, 255, 127, 215, 53, 40, 48, 45, 182, 0, 65, 45, 182, 0, 60, 195, 92, 195, 0, 106, 68, 254, 127, 39, 55, 87, 48, 168, 185, 0, 65, 147, 185, 0, 60, 191, 87, 191, 0, 104, 71, 247, 127, 12, 54, 67, 46, 9, 56, 0, 65, 176, 178, 0, 60, 80, 92, 223, 0, 92, 200, 65, 127, 211, 56, 173, 47, 100, 59, 0, 65, 246, 181, 0, 60, 85, 87, 221, 0, 88, 198, 70, 127, 79, 57, 106, 44, 209, 46, 0, 65, 72, 56, 0, 60, 16, 92, 85, 0, 122, 224, 10, 127, 153, 56, 67, 52, 62, 50, 0, 65, 237, 59, 0, 60, 18, 87, 90, 0, 122, 224, 6, 127, 228, 56, 101, 53, 94, 184, 0, 65, 0, 0, 0, 60, 170, 92, 0, 0, 86, 81, 45, 127, 10, 55, 178, 50, 0, 188, 0, 65, 40, 33, 0, 60, 164, 87, 0, 0, 80, 85, 48, 127, 215, 53, 113, 51, 176, 50, 0, 65, 9, 184, 0, 60, 33, 92, 176, 0, 119, 250, 42, 127, 81, 56, 114, 45, 31, 54, 0, 65, 79, 187, 0, 60, 35, 87, 171, 0, 119, 250, 43, 127, 96, 56, 71, 29, 67, 55, 0, 65, 218, 52, 0, 60, 72, 92, 48, 0, 97, 176, 10, 127, 246, 56, 178, 50, 166, 58, 0, 65, 134, 56, 0, 60, 76, 87, 51, 0, 93, 171, 4, 127, 144, 57, 113, 51, 45, 182, 0, 65, 45, 54, 0, 60, 195, 92, 61, 0, 107, 32, 59, 127, 198, 55, 67, 52, 168, 185, 0, 65, 188, 57, 0, 60, 191, 87, 65, 0, 105, 32, 62, 127, 47, 55, 101, 53, 218, 180, 0, 65, 67, 183, 0, 60, 208, 92, 184, 0, 113, 56, 253, 127, 81, 55, 173, 47, 113, 184, 0, 65, 146, 186, 0, 60, 205, 87, 180, 0, 112, 58, 247, 127, 89, 54, 106, 44, 72, 56, 0, 65, 209, 174, 0, 60, 85, 92, 240, 0, 87, 188, 61, 127, 232, 56, 87, 48, 216, 59, 0, 65, 235, 177, 0, 60, 90, 87, 238, 0, 81, 185, 65, 127, 117, 57, 67, 46, 0, 0, 0, 65, 94, 56, 0, 60, 0, 92, 86, 0, 123, 237, 20, 127, 118, 56, 97, 52, 0, 0, 0, 65, 10, 60, 0, 60, 0, 87, 92, 0, 124, 237, 18, 127, 164, 56, 156, 53, 72, 184, 0, 65, 209, 174, 0, 60, 171, 92, 240, 0, 87, 86, 31, 127, 252, 54, 26, 50, 216, 187, 0, 65, 235, 177, 0, 60, 166, 87, 238, 0, 82, 91, 30, 127, 188, 53, 90, 50, 218, 52, 0, 65, 67, 183, 0, 60, 48, 92, 184, 0, 114, 238, 52, 127, 118, 56, 174, 45, 113, 56, 0, 65, 146, 186, 0, 60, 51, 87, 180, 0, 113, 238, 54, 127, 164, 56, 26, 34, 45, 54, 0, 65, 45, 54, 0, 60, 61, 92, 61, 0, 105, 185, 2, 127, 232, 56, 66, 51, 168, 57, 0, 65, 188, 57, 0, 60, 65, 87, 65, 0, 103, 182, 252, 127, 117, 57, 60, 52, 67, 183, 0, 65, 218, 52, 0, 60, 184, 92, 48, 0, 100, 45, 62, 127, 135, 55, 24, 52, 166, 186, 0, 65, 134, 56, 0, 60, 180, 87, 51, 0, 97, 46, 67, 127, 187, 54, 22, 53, 176, 178, 0, 65, 9, 184, 0, 60, 223, 92, 176, 0, 119, 43, 1, 127, 135, 55, 209, 46, 31, 182, 0, 65, 79, 187, 0, 60, 221, 87, 171, 0, 118, 44, 252, 127, 187, 54, 177, 41, 94, 56, 0, 65, 0, 0, 0, 60, 86, 92, 0, 0, 84, 177, 51, 127, 246, 56, 231, 48, 0, 60, 0, 65, 40, 33, 0, 60, 92, 87, 0, 0, 78, 173, 54, 127, 144, 57, 40, 48, 209, 174, 0, 65, 72, 56, 0, 60, 240, 92, 85, 0, 122, 250, 31, 127, 81, 56, 112, 52, 62, 178, 0, 65, 237, 59, 0, 60, 238, 87, 90, 0, 123, 250, 30, 127, 96, 56, 183, 53, 9, 184, 0, 65, 176, 178, 0, 60, 176, 92, 223, 0, 92, 85, 15, 127, 252, 54, 127, 49, 100, 187, 0, 65, 246, 181, 0, 60, 171, 87, 221, 0, 87, 91, 12, 127, 188, 53, 62, 49, 45, 54, 0, 65, 45, 182, 0, 60, 61, 92, 195, 0, 107, 226, 60, 127, 153, 56, 37, 46, 218, 52, 0, 65, 67, 55, 0, 60, 48, 92, 72, 0, 112, 198, 0, 127, 211, 56, 195, 51, 9, 184, 0, 65, 176, 50, 0, 60, 176, 92, 33, 0, 93, 58, 62, 127, 81, 55, 195, 51, 209, 174, 0, 65, 72, 184, 0, 60, 240, 92, 171, 0, 122, 30, 9, 127, 198, 55, 37, 46, 72, 56, 0, 65, 209, 46, 0, 60, 85, 92, 16, 0, 85, 171, 38, 127, 254, 56, 127, 49, 176, 178, 0, 65, 9, 56, 0, 60, 223, 92, 80, 0, 119, 6, 42, 127, 43, 56, 112, 52, 67, 183, 0, 65, 218, 180, 0, 60, 184, 92, 208, 0, 99, 79, 3, 127, 10, 55, 231, 48, 72, 184, 0, 65, 209, 174, 0, 60, 171, 92, 240, 0, 166, 170, 238, 127, 176, 59, 43, 48, 9, 184, 244, 65, 176, 178, 0, 60, 171, 87, 221, 0, 176, 164, 223, 127, 2, 59, 191, 48, 9, 184, 0, 65, 176, 178, 0, 60, 176, 92, 223, 0, 171, 170, 221, 127, 176, 59, 191, 48, 45, 54, 0, 65, 45, 54, 0, 60, 61, 92, 61, 0, 65, 170, 65, 127, 85, 58, 210, 48, 218, 52, 244, 65, 67, 55, 0, 60, 51, 87, 76, 0, 48, 164, 72, 127, 168, 57, 67, 49, 218, 52, 0, 65, 67, 55, 0, 60, 48, 92, 72, 0, 51, 170, 77, 127, 85, 58, 67, 49, 67, 183, 244, 65, 218, 180, 0, 60, 180, 87, 205, 0, 184, 164, 208, 127, 2, 59, 67, 49, 67, 183, 0, 65, 218, 180, 0, 60, 184, 92, 208, 0, 179, 170, 205, 127, 176, 59, 67, 49, 218, 52, 0, 65, 67, 55, 0, 60, 48, 92, 72, 0, 51, 170, 77, 127, 224, 59, 143, 51, 176, 50, 244, 65, 9, 56, 0, 60, 35, 87, 85, 0, 33, 164, 80, 127, 51, 59, 10, 52, 176, 50, 0, 65, 9, 56, 0, 60, 33, 92, 80, 0, 35, 170, 85, 127, 224, 59, 10, 52, 0, 0, 0, 65, 94, 184, 0, 60, 0, 92, 170, 0, 0, 170, 164, 127, 2, 59, 59, 46, 209, 46, 244, 65, 72, 184, 0, 60, 18, 87, 166, 0, 16, 164, 171, 127, 85, 58, 117, 47, 209, 46, 0, 65, 72, 184, 0, 60, 16, 92, 171, 0, 18, 170, 166, 127, 2, 59, 117, 47, 67, 183, 0, 65, 218, 180, 0, 60, 184, 92, 208, 0, 179, 170, 205, 127, 2, 59, 131, 33, 45, 182, 244, 65, 45, 182, 0, 60, 191, 87, 191, 0, 195, 164, 195, 127, 85, 58, 73, 38, 45, 182, 0, 65, 45, 182, 0, 60, 195, 92, 195, 0, 191, 170, 191, 127, 2, 59, 73, 38, 209, 46, 244, 65, 72, 56, 0, 60, 18, 87, 90, 0, 16, 164, 85, 127, 51, 59, 84, 52, 209, 46, 0, 65, 72, 56, 0, 60, 16, 92, 85, 0, 18, 170, 90, 127, 224, 59, 84, 52, 176, 50, 244, 65, 9, 184, 0, 60, 35, 87, 171, 0, 33, 164, 176, 127, 85, 58, 78, 48, 176, 50, 0, 65, 9, 184, 0, 60, 33, 92, 176, 0, 35, 170, 171, 127, 2, 59, 78, 48, 218, 180, 244, 65, 67, 183, 0, 60, 205, 87, 180, 0, 208, 164, 184, 127, 85, 58, 55, 41, 218, 180, 0, 65, 67, 183, 0, 60, 208, 92, 184, 0, 205, 170, 179, 127, 2, 59, 55, 41, 0, 0, 244, 65, 94, 56, 0, 60, 0, 87, 92, 0, 0, 164, 87, 127, 51, 59, 162, 52, 0, 0, 0, 65, 94, 56, 0, 60, 0, 92, 86, 0, 0, 170, 92, 127, 224, 59, 162, 52, 218, 52, 244, 65, 67, 183, 0, 60, 51, 87, 180, 0, 48, 164, 184, 127, 85, 58, 210, 48, 218, 52, 0, 65, 67, 183, 0, 60, 48, 92, 184, 0, 51, 170, 179, 127, 2, 59, 210, 48, 176, 178, 244, 65, 9, 184, 0, 60, 221, 87, 171, 0, 223, 164, 176, 127, 85, 58, 134, 43, 176, 178, 0, 65, 9, 184, 0, 60, 223, 92, 176, 0, 221, 170, 171, 127, 2, 59, 134, 43, 209, 174, 244, 65, 72, 56, 0, 60, 238, 87, 90, 0, 240, 164, 85, 127, 51, 59, 242, 52, 209, 174, 0, 65, 72, 56, 0, 60, 240, 92, 85, 0, 238, 170, 90, 127, 224, 59, 242, 52, 45, 54, 244, 65, 45, 182, 0, 60, 65, 87, 191, 0, 61, 164, 195, 127, 85, 58, 67, 49, 45, 54, 0, 65, 45, 182, 0, 60, 61, 92, 195, 0, 65, 170, 191, 127, 2, 59, 67, 49, 209, 174, 244, 65, 72, 184, 0, 60, 238, 87, 166, 0, 240, 164, 171, 127, 85, 58, 252, 44, 209, 174, 0, 65, 72, 184, 0, 60, 240, 92, 171, 0, 238, 170, 166, 127, 2, 59, 252, 44, 176, 178, 244, 65, 9, 56, 0, 60, 221, 87, 85, 0, 223, 164, 80, 127, 51, 59, 64, 53, 176, 178, 0, 65, 9, 56, 0, 60, 223, 92, 80, 0, 221, 170, 85, 127, 224, 59, 64, 53, 45, 54, 0, 65, 45, 182, 0, 60, 61, 92, 195, 0, 65, 170, 191, 127, 85, 58, 131, 33, 67, 55, 244, 65, 218, 180, 0, 60, 76, 87, 205, 0, 72, 164, 208, 127, 168, 57, 73, 38, 67, 55, 0, 65, 218, 180, 0, 60, 72, 92, 208, 0, 77, 170, 205, 127, 85, 58, 73, 38, 0, 0, 244, 65, 94, 184, 0, 60, 0, 87, 164, 0, 0, 164, 169, 127, 85, 58, 59, 46, 218, 180, 244, 65, 67, 55, 0, 60, 205, 87, 76, 0, 208, 164, 72, 127, 51, 59, 138, 53, 218, 180, 0, 65, 67, 55, 0, 60, 208, 92, 72, 0, 205, 170, 77, 127, 224, 59, 138, 53, 9, 56, 244, 65, 176, 178, 0, 60, 85, 87, 221, 0, 80, 164, 223, 127, 168, 57, 55, 41, 9, 56, 0, 65, 176, 178, 0, 60, 80, 92, 223, 0, 85, 170, 221, 127, 85, 58, 55, 41, 45, 182, 244, 65, 45, 54, 0, 60, 191, 87, 65, 0, 195, 164, 61, 127, 51, 59, 204, 53, 45, 182, 0, 65, 45, 54, 0, 60, 195, 92, 61, 0, 191, 170, 65, 127, 224, 59, 204, 53, 72, 56, 244, 65, 209, 174, 0, 60, 90, 87, 238, 0, 85, 164, 240, 127, 168, 57, 134, 43, 72, 56, 0, 65, 209, 174, 0, 60, 85, 92, 240, 0, 90, 170, 238, 127, 85, 58, 134, 43, 45, 182, 0, 65, 45, 54, 0, 60, 195, 92, 61, 0, 191, 170, 65, 127, 176, 59, 232, 40, 67, 183, 244, 65, 218, 52, 0, 60, 180, 87, 51, 0, 184, 164, 48, 127, 2, 59, 251, 42, 67, 183, 0, 65, 218, 52, 0, 60, 184, 92, 48, 0, 179, 170, 51, 127, 176, 59, 251, 42, 94, 56, 244, 65, 0, 0, 0, 60, 92, 87, 0, 0, 87, 164, 0, 127, 168, 57, 252, 44, 94, 56, 0, 65, 0, 0, 0, 60, 86, 92, 0, 0, 92, 170, 0, 127, 85, 58, 252, 44, 9, 184, 244, 65, 176, 50, 0, 60, 171, 87, 35, 0, 176, 164, 33, 127, 2, 59, 164, 44, 9, 184, 0, 65, 176, 50, 0, 60, 176, 92, 33, 0, 171, 170, 35, 127, 176, 59, 164, 44, 72, 56, 244, 65, 209, 46, 0, 60, 90, 87, 18, 0, 85, 164, 16, 127, 168, 57, 59, 46, 72, 56, 0, 65, 209, 46, 0, 60, 85, 92, 16, 0, 90, 170, 18, 127, 85, 58, 59, 46, 72, 184, 244, 65, 209, 46, 0, 60, 166, 87, 18, 0, 171, 164, 16, 127, 2, 59, 222, 45, 72, 184, 0, 65, 209, 46, 0, 60, 171, 92, 16, 0, 166, 170, 18, 127, 176, 59, 222, 45, 9, 56, 244, 65, 176, 50, 0, 60, 85, 87, 35, 0, 80, 164, 33, 127, 168, 57, 117, 47, 9, 56, 0, 65, 176, 50, 0, 60, 80, 92, 33, 0, 85, 170, 35, 127, 85, 58, 117, 47, 94, 184, 244, 65, 0, 0, 0, 60, 164, 87, 0, 0, 169, 164, 0, 127, 2, 59, 29, 47, 94, 184, 0, 65, 0, 0, 0, 60, 170, 92, 0, 0, 164, 170, 0, 127, 176, 59, 29, 47, 67, 55, 244, 65, 218, 52, 0, 60, 76, 87, 51, 0, 72, 164, 48, 127, 168, 57, 78, 48, 67, 55, 0, 65, 218, 52, 0, 60, 72, 92, 48, 0, 77, 170, 51, 127, 85, 58, 78, 48, 72, 184, 244, 65, 209, 174, 0, 60, 166, 87, 238, 0, 171, 164, 240, 127, 2, 59, 43, 48, 45, 54, 244, 65, 45, 54, 0, 60, 65, 87, 65, 0, 61, 164, 61, 127, 168, 57, 210, 48, 176, 178, 244, 65, 9, 56, 0, 60, 0, 127, 0, 0, 244, 0, 130, 127, 190, 57, 238, 50, 9, 56, 244, 65, 176, 50, 0, 60, 0, 127, 0, 0, 244, 0, 130, 127, 16, 58, 158, 53, 176, 50, 244, 65, 9, 184, 0, 60, 0, 127, 0, 0, 244, 0, 130, 127, 29, 59, 247, 52, 168, 57, 0, 65, 147, 185, 0, 60, 65, 87, 191, 0, 163, 6, 171, 127, 108, 52, 4, 54, 113, 56, 0, 65, 187, 58, 0, 60, 51, 87, 76, 0, 102, 6, 181, 127, 255, 23, 4, 54, 113, 184, 0, 65, 187, 58, 0, 60, 205, 87, 76, 0, 148, 250, 191, 129, 200, 59, 4, 54, 168, 185, 0, 65, 188, 57, 0, 60, 191, 87, 65, 0, 163, 250, 171, 129, 1, 60, 4, 54, 166, 186, 0, 65, 93, 184, 0, 60, 180, 87, 205, 0, 191, 6, 108, 127, 104, 56, 4, 54, 62, 178, 0, 188, 196, 187, 0, 60, 238, 169, 166, 0, 222, 172, 88, 127, 244, 30, 27, 48, 0, 0, 0, 188, 235, 187, 0, 60, 0, 169, 164, 0, 238, 165, 86, 127, 0, 0, 58, 49, 62, 50, 0, 188, 196, 187, 0, 60, 18, 169, 166, 0, 0, 165, 88, 127, 0, 0, 95, 50, 31, 54, 0, 188, 79, 187, 0, 60, 35, 169, 171, 0, 16, 172, 93, 127, 244, 30, 126, 51, 113, 56, 0, 188, 146, 186, 0, 60, 51, 169, 180, 0, 26, 184, 100, 127, 38, 37, 70, 52, 168, 57, 0, 188, 147, 185, 0, 60, 65, 169, 191, 0, 29, 197, 108, 127, 13, 41, 191, 52, 166, 58, 0, 188, 93, 184, 0, 60, 76, 169, 205, 0, 25, 211, 115, 127, 26, 44, 39, 53, 100, 59, 0, 188, 246, 181, 0, 60, 85, 169, 221, 0, 17, 225, 121, 127, 244, 45, 120, 53, 0, 60, 0, 188, 40, 33, 0, 60, 92, 169, 0, 0, 251, 250, 126, 127, 25, 49, 204, 53, 216, 59, 0, 188, 144, 50, 0, 60, 90, 169, 18, 0, 238, 6, 125, 127, 54, 50, 204, 53, 100, 59, 0, 188, 72, 54, 0, 60, 85, 169, 35, 0, 225, 18, 121, 127, 78, 51, 176, 53, 166, 58, 0, 188, 134, 56, 0, 60, 76, 169, 51, 0, 215, 31, 115, 127, 43, 52, 120, 53, 168, 57, 0, 188, 188, 57, 0, 60, 65, 169, 65, 0, 208, 45, 108, 127, 161, 52, 39, 53, 113, 56, 0, 188, 187, 58, 0, 60, 51, 169, 76, 0, 206, 59, 100, 127, 6, 53, 191, 52, 31, 54, 0, 188, 120, 59, 0, 60, 35, 169, 85, 0, 211, 72, 93, 127, 85, 53, 70, 52, 0, 0, 0, 188, 10, 60, 0, 60, 0, 169, 92, 0, 238, 91, 86, 127, 168, 53, 95, 50, 62, 178, 0, 188, 237, 59, 0, 60, 238, 169, 90, 0, 0, 91, 88, 127, 168, 53, 58, 49, 31, 182, 0, 188, 120, 59, 0, 60, 221, 169, 85, 0, 16, 84, 93, 127, 140, 53, 27, 48, 113, 184, 0, 188, 187, 58, 0, 60, 205, 169, 76, 0, 26, 72, 100, 127, 85, 53, 27, 46, 168, 185, 0, 188, 188, 57, 0, 60, 191, 169, 65, 0, 29, 59, 108, 127, 6, 53, 52, 44, 166, 186, 0, 188, 134, 56, 0, 60, 180, 169, 51, 0, 25, 45, 115, 127, 161, 52, 45, 41, 100, 187, 0, 188, 72, 54, 0, 60, 171, 169, 35, 0, 17, 31, 121, 127, 43, 52, 71, 37, 0, 188, 0, 188, 40, 33, 0, 60, 164, 169, 0, 0, 251, 6, 126, 127, 54, 50, 0, 0, 216, 187, 0, 188, 235, 177, 0, 60, 166, 169, 238, 0, 238, 250, 125, 127, 25, 49, 0, 0, 100, 187, 0, 188, 246, 181, 0, 60, 171, 169, 221, 0, 225, 238, 121, 127, 1, 48, 34, 31, 166, 186, 0, 188, 93, 184, 0, 60, 180, 169, 205, 0, 215, 225, 115, 127, 244, 45, 71, 37, 168, 185, 0, 188, 147, 185, 0, 60, 191, 169, 191, 0, 208, 211, 108, 127, 26, 44, 45, 41, 113, 184, 0, 188, 146, 186, 0, 60, 205, 169, 180, 0, 206, 197, 100, 127, 13, 41, 52, 44, 31, 182, 0, 188, 79, 187, 0, 60, 221, 169, 171, 0, 211, 184, 93, 127, 38, 37, 27, 46, 218, 52, 244, 65, 67, 55, 0, 60, 51, 87, 76, 0, 48, 164, 72, 127, 51, 59, 143, 51, 67, 183, 244, 65, 218, 180, 0, 60, 180, 87, 205, 0, 184, 164, 208, 127, 85, 58, 131, 33, 45, 54, 244, 65, 45, 182, 0, 60, 65, 87, 191, 0, 61, 164, 195, 127, 168, 57, 131, 33, 45, 182, 244, 65, 45, 54, 0, 60, 191, 87, 65, 0, 195, 164, 61, 127, 2, 59, 232, 40, 176, 50, 244, 65, 9, 184, 0, 60, 0, 127, 0, 0, 244, 0, 130, 127, 29, 59, 247, 52, 209, 46, 244, 65, 72, 184, 0, 60, 0, 127, 0, 0, 244, 0, 130, 127, 43, 59, 173, 52, 0, 0, 244, 65, 94, 184, 0, 60, 0, 127, 0, 0, 244, 0, 130, 127, 51, 59, 95, 52, 0, 0, 244, 65, 94, 184, 0, 60, 0, 127, 0, 0, 244, 0, 130, 127, 51, 59, 95, 52, 209, 174, 244, 65, 72, 184, 0, 60, 0, 127, 0, 0, 244, 0, 130, 127, 51, 59, 15, 52, 176, 178, 244, 65, 9, 184, 0, 60, 0, 127, 0, 0, 244, 0, 130, 127, 43, 59, 130, 51, 176, 178, 244, 65, 9, 184, 0, 60, 0, 127, 0, 0, 244, 0, 130, 127, 43, 59, 130, 51, 218, 180, 244, 65, 67, 183, 0, 60, 0, 127, 0, 0, 244, 0, 130, 127, 29, 59, 238, 50, 45, 182, 244, 65, 45, 182, 0, 60, 0, 127, 0, 0, 244, 0, 130, 127, 7, 59, 105, 50, 45, 182, 244, 65, 45, 182, 0, 60, 0, 127, 0, 0, 244, 0, 130, 127, 7, 59, 105, 50, 67, 183, 244, 65, 218, 180, 0, 60, 0, 127, 0, 0, 244, 0, 130, 127, 235, 58, 248, 49, 176, 178, 244, 65, 9, 184, 0, 60, 0, 127, 0, 0, 244, 0, 130, 127, 43, 59, 130, 51, 67, 183, 244, 65, 218, 180, 0, 60, 0, 127, 0, 0, 244, 0, 130, 127, 235, 58, 248, 49, 9, 184, 244, 65, 176, 178, 0, 60, 0, 127, 0, 0, 244, 0, 130, 127, 203, 58, 160, 49, 176, 178, 244, 65, 9, 184, 0, 60, 0, 127, 0, 0, 244, 0, 130, 127, 43, 59, 130, 51, 9, 184, 244, 65, 176, 178, 0, 60, 0, 127, 0, 0, 244, 0, 130, 127, 203, 58, 160, 49, 72, 184, 244, 65, 209, 174, 0, 60, 0, 127, 0, 0, 244, 0, 130, 127, 167, 58, 99, 49, 94, 184, 244, 65, 0, 0, 0, 60, 0, 127, 0, 0, 244, 0, 130, 127, 129, 58, 67, 49, 94, 184, 244, 65, 0, 0, 0, 60, 0, 127, 0, 0, 244, 0, 130, 127, 129, 58, 67, 49, 72, 184, 244, 65, 209, 46, 0, 60, 0, 127, 0, 0, 244, 0, 130, 127, 90, 58, 67, 49, 9, 184, 244, 65, 176, 50, 0, 60, 0, 127, 0, 0, 244, 0, 130, 127, 52, 58, 99, 49, 9, 184, 244, 65, 176, 50, 0, 60, 0, 127, 0, 0, 244, 0, 130, 127, 52, 58, 99, 49, 67, 183, 244, 65, 218, 52, 0, 60, 0, 127, 0, 0, 244, 0, 130, 127, 16, 58, 160, 49, 176, 178, 244, 65, 9, 56, 0, 60, 0, 127, 0, 0, 244, 0, 130, 127, 190, 57, 238, 50, 67, 183, 244, 65, 218, 52, 0, 60, 0, 127, 0, 0, 244, 0, 130, 127, 16, 58, 160, 49, 45, 182, 244, 65, 45, 54, 0, 60, 0, 127, 0, 0, 244, 0, 130, 127, 239, 57, 248, 49, 176, 178, 244, 65, 9, 56, 0, 60, 0, 127, 0, 0, 244, 0, 130, 127, 190, 57, 238, 50, 45, 182, 244, 65, 45, 54, 0, 60, 0, 127, 0, 0, 244, 0, 130, 127, 239, 57, 248, 49, 218, 180, 244, 65, 67, 55, 0, 60, 0, 127, 0, 0, 244, 0, 130, 127, 212, 57, 105, 50, 176, 178, 244, 65, 9, 56, 0, 60, 0, 127, 0, 0, 244, 0, 130, 127, 190, 57, 238, 50, 176, 178, 244, 65, 9, 56, 0, 60, 0, 127, 0, 0, 244, 0, 130, 127, 190, 57, 238, 50, 209, 174, 244, 65, 72, 56, 0, 60, 0, 127, 0, 0, 244, 0, 130, 127, 175, 57, 130, 51, 0, 0, 244, 65, 94, 56, 0, 60, 0, 127, 0, 0, 244, 0, 130, 127, 168, 57, 15, 52, 0, 0, 244, 65, 94, 56, 0, 60, 0, 127, 0, 0, 244, 0, 130, 127, 168, 57, 15, 52, 209, 46, 244, 65, 72, 56, 0, 60, 0, 127, 0, 0, 244, 0, 130, 127, 168, 57, 95, 52, 176, 50, 244, 65, 9, 56, 0, 60, 0, 127, 0, 0, 244, 0, 130, 127, 175, 57, 173, 52, 176, 50, 244, 65, 9, 56, 0, 60, 0, 127, 0, 0, 244, 0, 130, 127, 175, 57, 173, 52, 218, 52, 244, 65, 67, 55, 0, 60, 0, 127, 0, 0, 244, 0, 130, 127, 190, 57, 247, 52, 45, 54, 244, 65, 45, 54, 0, 60, 0, 127, 0, 0, 244, 0, 130, 127, 212, 57, 57, 53, 45, 54, 244, 65, 45, 54, 0, 60, 0, 127, 0, 0, 244, 0, 130, 127, 212, 57, 57, 53, 67, 55, 244, 65, 218, 52, 0, 60, 0, 127, 0, 0, 244, 0, 130, 127, 239, 57, 114, 53, 9, 56, 244, 65, 176, 50, 0, 60, 0, 127, 0, 0, 244, 0, 130, 127, 16, 58, 158, 53, 9, 56, 244, 65, 176, 50, 0, 60, 0, 127, 0, 0, 244, 0, 130, 127, 16, 58, 158, 53, 72, 56, 244, 65, 209, 46, 0, 60, 0, 127, 0, 0, 244, 0, 130, 127, 52, 58, 189, 53, 94, 56, 244, 65, 0, 0, 0, 60, 0, 127, 0, 0, 244, 0, 130, 127, 90, 58, 204, 53, 94, 56, 244, 65, 0, 0, 0, 60, 0, 127, 0, 0, 244, 0, 130, 127, 90, 58, 204, 53, 72, 56, 244, 65, 209, 174, 0, 60, 0, 127, 0, 0, 244, 0, 130, 127, 129, 58, 204, 53, 9, 56, 244, 65, 176, 50, 0, 60, 0, 127, 0, 0, 244, 0, 130, 127, 16, 58, 158, 53, 72, 56, 244, 65, 209, 174, 0, 60, 0, 127, 0, 0, 244, 0, 130, 127, 129, 58, 204, 53, 9, 56, 244, 65, 176, 178, 0, 60, 0, 127, 0, 0, 244, 0, 130, 127, 167, 58, 189, 53, 9, 56, 244, 65, 176, 50, 0, 60, 0, 127, 0, 0, 244, 0, 130, 127, 16, 58, 158, 53, 9, 56, 244, 65, 176, 178, 0, 60, 0, 127, 0, 0, 244, 0, 130, 127, 167, 58, 189, 53, 67, 55, 244, 65, 218, 180, 0, 60, 0, 127, 0, 0, 244, 0, 130, 127, 203, 58, 158, 53, 45, 54, 244, 65, 45, 182, 0, 60, 0, 127, 0, 0, 244, 0, 130, 127, 235, 58, 114, 53, 45, 54, 244, 65, 45, 182, 0, 60, 0, 127, 0, 0, 244, 0, 130, 127, 235, 58, 114, 53, 218, 52, 244, 65, 67, 183, 0, 60, 0, 127, 0, 0, 244, 0, 130, 127, 7, 59, 57, 53, 9, 56, 244, 65, 176, 178, 0, 60, 0, 127, 0, 0, 244, 0, 130, 127, 167, 58, 189, 53, 218, 52, 244, 65, 67, 183, 0, 60, 0, 127, 0, 0, 244, 0, 130, 127, 7, 59, 57, 53, 176, 50, 244, 65, 9, 184, 0, 60, 0, 127, 0, 0, 244, 0, 130, 127, 29, 59, 247, 52, 9, 56, 244, 65, 176, 178, 0, 60, 0, 127, 0, 0, 244, 0, 130, 127, 167, 58, 189, 53, 176, 50, 244, 65, 9, 184, 0, 60, 0, 127, 0, 0, 244, 0, 130, 127, 29, 59, 247, 52, 0, 0, 244, 65, 94, 184, 0, 60, 0, 127, 0, 0, 244, 0, 130, 127, 51, 59, 95, 52, 9, 184, 244, 65, 176, 178, 0, 60, 0, 127, 0, 0, 244, 0, 130, 127, 203, 58, 160, 49, 0, 0, 244, 65, 94, 184, 0, 60, 0, 127, 0, 0, 244, 0, 130, 127, 51, 59, 95, 52, 176, 178, 244, 65, 9, 184, 0, 60, 0, 127, 0, 0, 244, 0, 130, 127, 43, 59, 130, 51, 9, 184, 244, 65, 176, 178, 0, 60, 0, 127, 0, 0, 244, 0, 130, 127, 203, 58, 160, 49, 9, 184, 244, 65, 176, 178, 0, 60, 0, 127, 0, 0, 244, 0, 130, 127, 203, 58, 160, 49, 94, 184, 244, 65, 0, 0, 0, 60, 0, 127, 0, 0, 244, 0, 130, 127, 129, 58, 67, 49, 176, 178, 244, 65, 9, 56, 0, 60, 0, 127, 0, 0, 244, 0, 130, 127, 190, 57, 238, 50, 176, 178, 244, 65, 9, 56, 0, 60, 0, 127, 0, 0, 244, 0, 130, 127, 190, 57, 238, 50, 176, 178, 244, 65, 9, 56, 0, 60, 0, 127, 0, 0, 244, 0, 130, 127, 190, 57, 238, 50, 0, 0, 244, 65, 94, 56, 0, 60, 0, 127, 0, 0, 244, 0, 130, 127, 168, 57, 15, 52, 9, 56, 244, 65, 176, 50, 0, 60, 0, 127, 0, 0, 244, 0, 130, 127, 16, 58, 158, 53, 176, 50, 244, 65, 9, 56, 0, 60, 0, 127, 0, 0, 244, 0, 130, 127, 175, 57, 173, 52, 176, 50, 244, 65, 9, 56, 0, 60, 0, 127, 0, 0, 244, 0, 130, 127, 175, 57, 173, 52, 45, 54, 244, 65, 45, 54, 0, 60, 0, 127, 0, 0, 244, 0, 130, 127, 212, 57, 57, 53, 9, 56, 244, 65, 176, 50, 0, 60, 0, 127, 0, 0, 244, 0, 130, 127, 16, 58, 158, 53, 9, 56, 244, 65, 176, 50, 0, 60, 0, 127, 0, 0, 244, 0, 130, 127, 16, 58, 158, 53, 9, 56, 244, 65, 176, 178, 0, 60, 0, 127, 0, 0, 244, 0, 130, 127, 167, 58, 189, 53, 176, 50, 244, 65, 9, 184, 0, 60, 0, 127, 0, 0, 244, 0, 130, 127, 29, 59, 247, 52, 176, 50, 244, 65, 9, 184, 0, 60, 0, 127, 0, 0, 244, 0, 130, 127, 29, 59, 247, 52, 9, 184, 244, 65, 176, 178, 0, 60, 0, 127, 0, 0, 244, 0, 130, 127, 203, 58, 160, 49, 176, 178, 244, 65, 9, 56, 0, 60, 0, 127, 0, 0, 244, 0, 130, 127, 190, 57, 238, 50 ),
"array_index_data": PoolByteArray( 0, 0, 2, 0, 1, 0, 3, 0, 1, 0, 4, 0, 5, 0, 4, 0, 6, 0, 7, 0, 6, 0, 8, 0, 9, 0, 11, 0, 10, 0, 12, 0, 10, 0, 13, 0, 14, 0, 13, 0, 15, 0, 16, 0, 15, 0, 17, 0, 18, 0, 17, 0, 19, 0, 20, 0, 19, 0, 21, 0, 22, 0, 21, 0, 23, 0, 24, 0, 23, 0, 25, 0, 26, 0, 25, 0, 27, 0, 28, 0, 30, 0, 29, 0, 31, 0, 29, 0, 32, 0, 33, 0, 32, 0, 34, 0, 35, 0, 34, 0, 36, 0, 37, 0, 36, 0, 38, 0, 39, 0, 38, 0, 40, 0, 41, 0, 43, 0, 42, 0, 44, 0, 46, 0, 45, 0, 47, 0, 45, 0, 48, 0, 49, 0, 48, 0, 50, 0, 51, 0, 50, 0, 52, 0, 53, 0, 52, 0, 54, 0, 55, 0, 54, 0, 56, 0, 57, 0, 56, 0, 58, 0, 59, 0, 61, 0, 60, 0, 62, 0, 60, 0, 63, 0, 64, 0, 63, 0, 65, 0, 66, 0, 68, 0, 67, 0, 69, 0, 65, 0, 70, 0, 71, 0, 70, 0, 2, 0, 72, 0, 74, 0, 73, 0, 75, 0, 77, 0, 76, 0, 78, 0, 80, 0, 79, 0, 81, 0, 83, 0, 82, 0, 84, 0, 81, 0, 85, 0, 86, 0, 88, 0, 87, 0, 89, 0, 91, 0, 90, 0, 92, 0, 94, 0, 93, 0, 68, 0, 96, 0, 95, 0, 77, 0, 98, 0, 97, 0, 80, 0, 100, 0, 99, 0, 83, 0, 102, 0, 101, 0, 88, 0, 104, 0, 103, 0, 91, 0, 106, 0, 105, 0, 94, 0, 108, 0, 107, 0, 96, 0, 110, 0, 109, 0, 98, 0, 112, 0, 111, 0, 100, 0, 114, 0, 113, 0, 102, 0, 116, 0, 115, 0, 104, 0, 118, 0, 117, 0, 106, 0, 120, 0, 119, 0, 108, 0, 122, 0, 121, 0, 110, 0, 124, 0, 123, 0, 112, 0, 126, 0, 125, 0, 114, 0, 128, 0, 127, 0, 116, 0, 66, 0, 129, 0, 118, 0, 75, 0, 130, 0, 120, 0, 78, 0, 131, 0, 122, 0, 84, 0, 132, 0, 124, 0, 86, 0, 133, 0, 126, 0, 89, 0, 134, 0, 128, 0, 92, 0, 135, 0, 136, 0, 138, 0, 137, 0, 139, 0, 141, 0, 140, 0, 138, 0, 143, 0, 142, 0, 144, 0, 146, 0, 145, 0, 147, 0, 149, 0, 148, 0, 150, 0, 152, 0, 151, 0, 146, 0, 154, 0, 153, 0, 149, 0, 156, 0, 155, 0, 152, 0, 158, 0, 157, 0, 154, 0, 160, 0, 159, 0, 156, 0, 162, 0, 161, 0, 158, 0, 164, 0, 163, 0, 160, 0, 166, 0, 165, 0, 162, 0, 168, 0, 167, 0, 164, 0, 170, 0, 169, 0, 166, 0, 172, 0, 171, 0, 173, 0, 175, 0, 174, 0, 170, 0, 147, 0, 176, 0, 172, 0, 178, 0, 177, 0, 175, 0, 180, 0, 179, 0, 178, 0, 182, 0, 181, 0, 180, 0, 184, 0, 183, 0, 185, 0, 187, 0, 186, 0, 184, 0, 189, 0, 188, 0, 187, 0, 191, 0, 190, 0, 189, 0, 193, 0, 192, 0, 191, 0, 195, 0, 194, 0, 193, 0, 197, 0, 196, 0, 195, 0, 199, 0, 198, 0, 197, 0, 201, 0, 200, 0, 199, 0, 136, 0, 202, 0, 201, 0, 139, 0, 203, 0, 204, 0, 206, 0, 205, 0, 0, 0, 1, 0, 3, 0, 3, 0, 4, 0, 5, 0, 5, 0, 6, 0, 7, 0, 7, 0, 8, 0, 207, 0, 9, 0, 10, 0, 12, 0, 12, 0, 13, 0, 14, 0, 14, 0, 15, 0, 16, 0, 16, 0, 17, 0, 18, 0, 18, 0, 19, 0, 20, 0, 20, 0, 21, 0, 22, 0, 22, 0, 23, 0, 24, 0, 24, 0, 25, 0, 26, 0, 26, 0, 27, 0, 208, 0, 28, 0, 29, 0, 31, 0, 31, 0, 32, 0, 33, 0, 33, 0, 34, 0, 35, 0, 35, 0, 36, 0, 37, 0, 37, 0, 38, 0, 39, 0, 39, 0, 40, 0, 209, 0, 41, 0, 42, 0, 210, 0, 44, 0, 45, 0, 47, 0, 47, 0, 48, 0, 49, 0, 49, 0, 50, 0, 51, 0, 51, 0, 52, 0, 53, 0, 53, 0, 54, 0, 55, 0, 55, 0, 56, 0, 57, 0, 57, 0, 58, 0, 211, 0, 59, 0, 60, 0, 62, 0, 62, 0, 63, 0, 64, 0, 64, 0, 65, 0, 69, 0, 66, 0, 67, 0, 129, 0, 69, 0, 70, 0, 71, 0, 71, 0, 2, 0, 0, 0, 212, 0, 214, 0, 213, 0, 214, 0, 216, 0, 215, 0, 216, 0, 72, 0, 217, 0, 217, 0, 72, 0, 218, 0, 218, 0, 72, 0, 219, 0, 72, 0, 221, 0, 220, 0, 221, 0, 223, 0, 222, 0, 223, 0, 73, 0, 224, 0, 224, 0, 73, 0, 225, 0, 225, 0, 73, 0, 226, 0, 73, 0, 228, 0, 227, 0, 228, 0, 230, 0, 229, 0, 230, 0, 232, 0, 231, 0, 232, 0, 74, 0, 233, 0, 74, 0, 235, 0, 234, 0, 235, 0, 237, 0, 236, 0, 237, 0, 212, 0, 238, 0, 238, 0, 212, 0, 239, 0, 239, 0, 212, 0, 240, 0, 212, 0, 216, 0, 214, 0, 72, 0, 73, 0, 221, 0, 221, 0, 73, 0, 223, 0, 73, 0, 74, 0, 228, 0, 228, 0, 74, 0, 230, 0, 230, 0, 74, 0, 232, 0, 74, 0, 212, 0, 235, 0, 235, 0, 212, 0, 237, 0, 212, 0, 72, 0, 216, 0, 212, 0, 74, 0, 72, 0, 75, 0, 76, 0, 130, 0, 78, 0, 79, 0, 131, 0, 81, 0, 82, 0, 85, 0, 84, 0, 85, 0, 132, 0, 86, 0, 87, 0, 133, 0, 89, 0, 90, 0, 134, 0, 92, 0, 93, 0, 135, 0, 68, 0, 95, 0, 67, 0, 77, 0, 97, 0, 76, 0, 80, 0, 99, 0, 79, 0, 83, 0, 101, 0, 82, 0, 88, 0, 103, 0, 87, 0, 91, 0, 105, 0, 90, 0, 94, 0, 107, 0, 93, 0, 96, 0, 109, 0, 95, 0, 98, 0, 111, 0, 97, 0, 100, 0, 113, 0, 99, 0, 102, 0, 115, 0, 101, 0, 104, 0, 117, 0, 103, 0, 106, 0, 119, 0, 105, 0, 108, 0, 121, 0, 107, 0, 110, 0, 123, 0, 109, 0, 112, 0, 125, 0, 111, 0, 114, 0, 127, 0, 113, 0, 116, 0, 129, 0, 115, 0, 118, 0, 130, 0, 117, 0, 120, 0, 131, 0, 119, 0, 122, 0, 132, 0, 121, 0, 124, 0, 133, 0, 123, 0, 126, 0, 134, 0, 125, 0, 128, 0, 135, 0, 127, 0, 136, 0, 137, 0, 202, 0, 139, 0, 140, 0, 203, 0, 138, 0, 142, 0, 137, 0, 144, 0, 145, 0, 241, 0, 147, 0, 148, 0, 176, 0, 150, 0, 151, 0, 242, 0, 146, 0, 153, 0, 145, 0, 149, 0, 155, 0, 148, 0, 152, 0, 157, 0, 151, 0, 154, 0, 159, 0, 153, 0, 156, 0, 161, 0, 155, 0, 158, 0, 163, 0, 157, 0, 160, 0, 165, 0, 159, 0, 162, 0, 167, 0, 161, 0, 164, 0, 169, 0, 163, 0, 166, 0, 171, 0, 165, 0, 173, 0, 174, 0, 243, 0, 170, 0, 176, 0, 169, 0, 172, 0, 177, 0, 171, 0, 175, 0, 179, 0, 174, 0, 178, 0, 181, 0, 177, 0, 180, 0, 183, 0, 179, 0, 185, 0, 186, 0, 244, 0, 184, 0, 188, 0, 183, 0, 187, 0, 190, 0, 186, 0, 189, 0, 192, 0, 188, 0, 191, 0, 194, 0, 190, 0, 193, 0, 196, 0, 192, 0, 195, 0, 198, 0, 194, 0, 197, 0, 200, 0, 196, 0, 199, 0, 202, 0, 198, 0, 201, 0, 203, 0, 200, 0, 245, 0, 247, 0, 246, 0, 248, 0, 250, 0, 249, 0, 251, 0, 253, 0, 252, 0, 254, 0, 0, 1, 255, 0, 1, 1, 3, 1, 2, 1, 4, 1, 6, 1, 5, 1, 7, 1, 9, 1, 8, 1, 10, 1, 12, 1, 11, 1, 13, 1, 15, 1, 14, 1, 16, 1, 18, 1, 17, 1, 19, 1, 21, 1, 20, 1, 22, 1, 24, 1, 23, 1, 25, 1, 27, 1, 26, 1, 28, 1, 30, 1, 29, 1, 31, 1, 33, 1, 32, 1, 34, 1, 36, 1, 35, 1, 37, 1, 39, 1, 38, 1, 40, 1, 42, 1, 41, 1, 43, 1, 45, 1, 44, 1, 46, 1, 48, 1, 47, 1, 49, 1, 51, 1, 50, 1, 52, 1, 54, 1, 53, 1, 55, 1, 57, 1, 56, 1, 7, 1, 58, 1, 9, 1, 59, 1, 61, 1, 60, 1, 60, 1, 61, 1, 62, 1, 63, 1, 65, 1, 64, 1, 66, 1, 68, 1, 67, 1, 69, 1, 71, 1, 70, 1 ),
"blend_shape_data": [  ],
"format": 98071,
"index_count": 756,
"primitive": 4,
"skeleton_aabb": [  ],
"vertex_count": 328
}

[sub_resource type="Shader" id=2]

code = "shader_type spatial;

uniform sampler2D empty_tex;
uniform sampler2D full_tex;

uniform float percentage;
uniform float SIDE_TEXTURE_HEIGHT;

void fragment() {
	if(1.0 - UV.y < percentage * SIDE_TEXTURE_HEIGHT) {
		ALBEDO = texture(full_tex, UV).rgb;
	} else {
		ALBEDO = texture(empty_tex, UV).rgb;
	}
}"

[sub_resource type="ShaderMaterial" id=4]

resource_local_to_scene = true
render_priority = 0
shader = SubResource( 2 )
shader_param/percentage = 0.0
shader_param/SIDE_TEXTURE_HEIGHT = 0.65
shader_param/empty_tex = ExtResource( 1 )
shader_param/full_tex = ExtResource( 2 )
_sections_unfolded = [ "Resource", "shader_param" ]

[node name="Battery" type="Spatial"]

_sections_unfolded = [ "Transform" ]

[node name="Cylinder" type="MeshInstance" parent="." index="0"]

transform = Transform( 0.25, 0, 0, 0, 0.15, 0, 0, 0, 0.25, 0, 0, 0 )
layers = 1
material_override = null
cast_shadow = 1
extra_cull_margin = 0.0
use_in_baked_light = false
lod_min_distance = 0.0
lod_min_hysteresis = 0.0
lod_max_distance = 0.0
lod_max_hysteresis = 0.0
mesh = SubResource( 5 )
skeleton = NodePath("..")
material/0 = SubResource( 4 )
_sections_unfolded = [ "Transform", "material" ]


