[gd_resource type="SpatialMaterial" load_steps=3 format=2]

[ext_resource path="res://plugins/characters/Beastie/beastie_tex.png" type="Texture" id=1]

[sub_resource type="SpatialMaterial" id=1]
flags_unshaded = true
params_cull_mode = 1
params_grow = true
params_grow_amount = 0.02
albedo_color = Color( 0, 0, 0, 1 )

[resource]
resource_local_to_scene = true
next_pass = SubResource( 1 )
params_diffuse_mode = 4
params_specular_mode = 4
albedo_texture = ExtResource( 1 )
roughness = 0.0
